{
"capabilities":
     [
       {
          "deviceName": "e2b18ee4063b4957",
         "version":"5.0.2",
         "maxInstances": 3,
         "platform":"ANDROID"
       }
     ],
"configuration":
{
   "cleanUpCycle":2000,
   "timeout":60000,
   "proxy": "org.openqa.grid.selenium.proxy.DefaultRemoteProxy",
   "url":"http://127.0.0.1:4989/wd/hub",
   "port": 4989,
   "maxSession": 6,
   "register": true,
   "registerCycle": 10000,
   "hubPort": 4444,
   "hubHost": "127.0.0.1"
}
}